Chapter 3 - Climate Data • naturecounts
…
3.2 Weathercan (Vector) Data

weathercan is an R package designed to help access
historical weather data from ECCC. Steffi LaZerte’s online tutorial, Integrating data
from weathercan, provides more details on how to download, filter,
and visualize weather data in R.

First, let’s take a look at the built in stations
dataset:

stations()
#> # A tibble: 26,382 × 17
#>    prov  station_name       station_id climate_id WMO_id TC_id   lat   lon  elev tz    interval start   end normals
#>    <chr> <chr>                   <dbl> <chr>       <dbl> <chr> <dbl> <dbl> <dbl> <chr> <chr>    <dbl> <dbl> <lgl>  
#>  1 AB    DAYSLAND                 1795 301AR54        NA <NA>   52.9 -112.  689. Etc/… day       1908  1922 FALSE  
#>  2 AB    DAYSLAND                 1795 301AR54        NA <NA>   52.9 -112.  689. Etc/… hour        NA    NA FALSE  
#>  3 AB    DAYSLAND                 1795 301AR54        NA <NA>   52.9 -112.  689. Etc/… month     1908  1922 FALSE  
#>  4 AB    EDMONTON CORONATI…       1796 301BK03        NA <NA>   53.6 -114.  671. Etc/… day       1978  1979 FALSE  
#>  5 AB    EDMONTON CORONATI…       1796 301BK03        NA <NA>   53.6 -114.  671. Etc/… hour        NA    NA FALSE  
#>  6 AB    EDMONTON CORONATI…       1796 301BK03        NA <NA>   53.6 -114.  671. Etc/… month     1978  1979 FALSE  
#>  7 AB    FLEET                    1797 301B6L0        NA <NA>   52.2 -112.  838. Etc/… day       1987  1990 FALSE  
#>  8 AB    FLEET                    1797 301B6L0        NA <NA>   52.2 -112.  838. Etc/… hour        NA    NA FALSE  
#>  9 AB    FLEET                    1797 301B6L0        NA <NA>   52.2 -112.  838. Etc/… month     1987  1990 FALSE  
#> 10 AB    GOLDEN VALLEY            1798 301B8LR        NA <NA>   53.2 -110.  640  Etc/… day       1987  1998 FALSE  
#> # ℹ 26,372 more rows
#> # ℹ 3 more variables: normals_1991_2020 <lgl>, normals_1981_2010 <lgl>, normals_1971_2000 <lgl>
…
Finally, to summarize the weather data by calculating the annual mean
summer temperature and precipitation we can use the familiar
filter, group_by, and summarise
functions:

yearly_climate <- weather %>%
  filter(month(date) %in% 5:8) %>%  # Filter for summer months May (5) through August (8)
  group_by(survey_year = year(date)) %>%   # Group by year
  summarize(
    yearly_avg_temp = mean(mean_temp, na.rm = TRUE),
    yearly_avg_precip = mean(total_precip, na.rm = TRUE)
  )
yearly_climate
#> # A tibble: 27 × 3
#>     year yearly_avg_temp yearly_avg_precip
#>    <dbl>           <dbl>             <dbl>
#>  1  1985            11.6              1.14
#>  2  1986            11.7              2.96
#>  3  1987            11.8              2.71
#>  4  1988            12.1              3.40
#>  5  1989            13.0              1.85
#>  6  1990            13.1              2.44
#>  7  1991            13.4              3.40
#>  8  1992            11.2              2.40
#>  9  1993            10.7              3.00
#> 10  1994            13.2              3.39
#> # ℹ 17 more rows
…
