Search for bird species id codes by alphanumeric codes — search_species_code • naturecounts
…
    A data frame of numeric species id codes and names

    Details

    species_code_search() is deprecated in favour of search_species_code()

Species ids returned reflect both species and sub-species levels.

    Examples

# Show all ids
search_species_code()

#> # A tibble: 1,127 x 5
#>    species_id BSCDATA scientific_name     english_name       french_name        
#>         <int> <chr>   <chr>               <chr>              <chr>              
#>  1         80 BBWD    Dendrocygna autumn… Black-bellied Whi… Dendrocygne à vent…
#>  2        100 FUWD    Dendrocygna bicolor Fulvous Whistling… Dendrocygne fauve  
#>  3        110 BEGO    Anser fabalis/serr… Taiga/Tundra Bean… Oie des moissons o…
#>  4        111 TABG    Anser fabalis       Taiga Bean-Goose   Oie des moissons   
#>  5        112 TUBG    Anser serrirostris  Tundra Bean-Goose  Oie de la toundra  
#>  6        120 PFGO    Anser brachyrhynch… Pink-footed Goose  Oie à bec court    
#>  7        130 GWFG    Anser albifrons     Greater White-fro… Oie rieuse         
#>  8        140 LWFG    Anser erythropus    Lesser White-fron… Oie naine          
#>  9        141 GRGO    Anser anser         Graylag Goose      Oie cendrée        
#> 10        142 BHGO    Anser indicus       Bar-headed Goose   Oie à tête barrée  
#> # … with 1,117 more rows
…
