Find species codes — search_species • naturecounts
…
    Value

Data frame of species ids and taxonomic information

    Details

    species_search() is deprecated in favour of search_species()

    Examples

# Show all ids
search_species()
#> # A tibble: 37,104 × 5
#>    species_id scientific_name          english_name              frenc…¹ taxon…²
#>         <int> <chr>                    <chr>                     <chr>   <chr>  
#>  1          0 N/A                      No observations           Aucune… BIRDS  
#>  2         10 Tinamus major            Great Tinamou             Grand … BIRDS  
#>  3         20 Nothocercus bonapartei   Highland Tinamou          Tinamo… BIRDS  
#>  4         30 Crypturellus soui        Little Tinamou            Tinamo… BIRDS  
#>  5         40 Crypturellus cinnamomeus Thicket Tinamou           Tinamo… BIRDS  
#>  6         50 Crypturellus boucardi    Slaty-breasted Tinamou    Tinamo… BIRDS  
#>  7         60 Crypturellus kerriae     Choco Tinamou             Tinamo… BIRDS  
#>  8         70 Dendrocygna viduata      White-faced Whistling-Du… Dendro… BIRDS  
#>  9         80 Dendrocygna autumnalis   Black-bellied Whistling-… Dendro… BIRDS  
#> 10         90 Dendrocygna arborea      West Indian Whistling-Du… Dendro… BIRDS  
#> # … with 37,094 more rows, and abbreviated variable names ¹​french_name,
#> #   ²​taxon_group
…
# Add alphanumeric code for BSCDATA authority
search_species("black-capped chickadee", authority = "BSCDATA")
#> # A tibble: 29 × 6
#>    species_id scientific_name      english_name          frenc…¹ taxon…² BSCDATA
#>         <int> <chr>                <chr>                 <chr>   <chr>   <chr>  
#>  1      14280 Poecile atricapillus Black-capped Chickad… Mésang… BIRDS   BCCH   
#>  2      14280 Poecile atricapillus Black-capped Chickad… Mésang… BIRDS   BCCH   
#>  3      14280 Poecile atricapillus Black-capped Chickad… Mésang… BIRDS   BCCH   
#>  4      14280 Poecile atricapillus Black-capped Chickad… Mésang… BIRDS   07350  
#>  5      14280 Poecile atricapillus Black-capped Chickad… Mésang… BIRDS   BCCH   
#>  6      14280 Poecile atricapillus Black-capped Chickad… Mésang… BIRDS   BCCH   
#>  7      14280 Poecile atricapillus Black-capped Chickad… Mésang… BIRDS   7149   
#>  8      14280 Poecile atricapillus Black-capped Chickad… Mésang… BIRDS   BCCH   
#>  9      14280 Poecile atricapillus Black-capped Chickad… Mésang… BIRDS   8868   
#> 10      14280 Poecile atricapillus Black-capped Chickad… Mésang… BIRDS   BCCH   
#> # … with 19 more rows, and abbreviated variable names ¹​french_name,
#> #   ²​taxon_group
…
# Using the codes
nc_count(species = 14280)
#> Without a username, using 'show = "all"'
#> Using filters: species (14280)
#> # A tibble: 93 × 4
#>    collection      akn_level access nrecords
#>    <chr>               <int> <chr>     <int>
#>  1 ABATLAS1                5 full       1314
#>  2 ABATLAS2                5 full       3773
#>  3 ABBIRDRECS              5 full       2931
#>  4 BBS                     5 full      39794
#>  5 BBS50-CAN               5 full      48423
#>  6 BBS50-US-EAST           5 full      58161
#>  7 BBS50-US-WEST           5 full      51535
#>  8 BCATLAS1BE_DO           5 full        447
#>  9 BCATLAS1BE_RAW          5 full       3616
#> 10 BCATLAS1BE_SUMM         5 full       1553
#> # … with 83 more rows
…
