…
``` r
yearly_climate <- weather %>%
  filter(lubridate::month(date) %in% 5:8) %>%  # Filter for summer months May (5) through August (8)
  group_by(year = lubridate::year(date)) %>%   # Group by year
  summarize(
    yearly_avg_temp = mean(mean_temp, na.rm = TRUE),
    yearly_avg_precip = mean(total_precip, na.rm = TRUE)
  )
yearly_climate
```

```
## # A tibble: 27 × 3
##     year yearly_avg_temp yearly_avg_precip
##    <dbl>           <dbl>             <dbl>
##  1  1985            11.6              1.14
##  2  1986            11.7              2.96
##  3  1987            11.8              2.71
##  4  1988            12.1              3.40
##  5  1989            13.0              1.85
##  6  1990            13.1              2.44
##  7  1991            13.4              3.40
##  8  1992            11.2              2.40
##  9  1993            10.7              3.00
## 10  1994            13.2              3.39
## # ℹ 17 more rows
```
…
