Metadata — meta • naturecounts
…
meta_bmde_fields(): Fields/columns associated with a particular BMDE (Bird
Monitoring Data Exchange) version. See meta_bmde_versions() for the
different versions available, meta_collections() for which version is
used by which project, and nc_data_dl() for more details on downloading
data with a given set of fields/columns.

    Examples

# Return fields/columns in the 'minimum' version
meta_bmde_fields()
#> # A tibble: 37 × 3
#>    field_order version      local_name            
#>          <int> <chr>        <chr>                 
#>  1           1 BMDE2.00-min GlobalUniqueIdentifier
#>  2           2 BMDE2.00-min CatalogNumber         
#>  3           3 BMDE2.00-min Locality              
#>  4           4 BMDE2.00-min TimeCollected         
#>  5           5 BMDE2.00-min CollectorNumber       
#>  6           6 BMDE2.00-min FieldNumber           
#>  7           7 BMDE2.00-min Remarks               
#>  8           8 BMDE2.00-min ProjectCode           
#>  9           9 BMDE2.00-min ProtocolType          
#> 10          10 BMDE2.00-min ProtocolCode          
#> # … with 27 more rows

# Retrun fields/columns in the 'core' version
meta_bmde_fields(version = "core")
#> # A tibble: 169 × 3
#>    field_order version  local_name            
#>          <int> <chr>    <chr>                 
#>  1           1 BMDE2.00 GlobalUniqueIdentifier
#>  2           2 BMDE2.00 DateLastModified      
#>  3           3 BMDE2.00 BasisOfRecord         
#>  4           4 BMDE2.00 InstitutionCode       
#>  5           5 BMDE2.00 CollectionCode        
#>  6           6 BMDE2.00 CatalogNumber         
#>  7           7 BMDE2.00 ScientificName        
#>  8           8 BMDE2.00 HigherTaxon           
#>  9           9 BMDE2.00 Kingdom               
#> 10          10 BMDE2.00 Phylum                
#> # … with 159 more rows

# Return all possible fields
meta_bmde_fields(version = "extended")
#> # A tibble: 265 × 3
#>    field_order version      local_name            
#>          <int> <chr>        <chr>                 
#>  1           1 BMDE2.00-ext GlobalUniqueIdentifier
#>  2           2 BMDE2.00-ext DateLastModified      
#>  3           3 BMDE2.00-ext BasisOfRecord         
#>  4           4 BMDE2.00-ext InstitutionID         
#>  5           5 BMDE2.00-ext InstitutionCode       
#>  6           6 BMDE2.00-ext CollectionCode        
#>  7           7 BMDE2.00-ext CatalogNumber         
#>  8           8 BMDE2.00-ext ScientificName        
#>  9           9 BMDE2.00-ext HigherTaxon           
#> 10          10 BMDE2.00-ext Kingdom               
#> # … with 255 more rows
…
