Download information about NatureCounts collections — nc_count • naturecounts
…
Requests for "full" access to additional collections can be made online
through the Web Request Form by
checking the "Full access?" box in Step 2 of the form.

    See also

    nc_requests()

    Examples

# Count all publicly available records:
# \donttest{
nc_count()
#> Without a username, using 'show = "all"'
#> # A tibble: 143 × 4
#>    collection    akn_level access     nrecords
#>    <chr>             <int> <chr>         <int>
#>  1 ABATLAS1              5 full         123364
#>  2 ABATLAS2              5 full         201382
#>  3 ABBIRDRECS            5 full         357264
#>  4 ATBANS                3 by request      102
#>  5 ATOWLS                4 by request    25268
#>  6 BBS                   5 full        5735895
#>  7 BBS50                 5 full              0
#>  8 BBS50-CAN             5 full        4168740
#>  9 BBS50-US-EAST         5 full        9940162
#> 10 BBS50-US-WEST         5 full       10749161
#> # … with 133 more rows
# }

# Count publicly available records for Manitoba, Canada
# \donttest{
nc_count(region = list(statprov = "MB"))
#> Without a username, using 'show = "all"'
#> Using filters: statprov (MB)
#> # A tibble: 23 × 4
#>    collection    akn_level access     nrecords
#>    <chr>             <int> <chr>         <int>
#>  1 ABBIRDRECS            5 full            357
#>  2 BBS                   5 full          86997
#>  3 BBS50-CAN             5 full         453998
#>  4 CBC                   2 no access     20507
#>  5 CMMN-DET-DMBO         2 no access     96678
#>  6 EBIRD-CA-PR           4 by request  2910791
#>  7 EBIRD-CA-SENS         3 by request     4561
#>  8 EBUTTERFLY            5 full            224
#>  9 GBBC                  4 by request    24393
#> 10 HawkCount             4 by request     1446
#> # … with 13 more rows
…
