Adding Climate Data • naturecounts
…
Download climate data

Find climate stations

The first step is to find data that matches the locations of our observations. To do this we need to see which locations we have.

locs <- bcch %>%
  select(latitude, longitude, survey_year) %>% 
  group_by(latitude, longitude) %>%
  summarize(start_year = min(survey_year), end_year = max(survey_year)) %>%
  ungroup()
#> `summarise()` has grouped output by 'latitude'. You can override using the
#> `.groups` argument.
locs
#> # A tibble: 41 × 4
#>    latitude longitude start_year end_year
#>       <dbl>     <dbl>      <int>    <int>
#>  1     45.4     -76.3       2013     2013
#>  2     45.5     -77.7       2011     2011
#>  3     45.5     -77.5       2011     2012
#>  4     45.6     -77.4       2001     2004
#>  5     45.6     -77.1       2012     2012
#>  6     45.6     -77.1       2012     2014
#>  7     45.6     -77.1       2011     2011
#>  8     45.6     -77.1       2008     2008
#>  9     45.6     -77.2       2010     2010
#> 10     45.6     -77.4       2011     2011
#> # … with 31 more rows
…
Let’s have a look at what we’ve got.

Luckily, many of these sites list the same station (Petawawa Hoffman, 6900), but some more than 40km away. Whether or not this is considered too far, depends on the analysis being conducted. For now we’ll accept it.

Note: in this situation, all sites returned a climate station, but sometimes there are no stations close enough within the specified data range. These sites would not appear in this data.

Next we’ll download the data for these stations in our date range. But first, we’ll store the matched stations with their sites.

locs <- left_join(locs, select(stns, station_id, latitude, longitude),
                  by = c("latitude", "longitude"))
locs
#> # A tibble: 41 × 5
#>    latitude longitude start_year end_year station_id
#>       <dbl>     <dbl>      <int>    <int>      <dbl>
#>  1     45.4     -76.3       2013     2013       5604
#>  2     45.5     -77.7       2011     2011      42967
#>  3     45.5     -77.5       2011     2012      49068
#>  4     45.6     -77.4       2001     2004       4252
#>  5     45.6     -77.1       2012     2012      49068
#>  6     45.6     -77.1       2012     2014      49068
#>  7     45.6     -77.1       2011     2011      49068
#>  8     45.6     -77.1       2008     2008       6900
#>  9     45.6     -77.2       2010     2010      49068
#> 10     45.6     -77.4       2011     2011      49068
#> # … with 31 more rows
…
