Filtering data after download • naturecounts
…
## Warning: 203 failed to parse.

For databases, you’ll modify the connection, then update your table reference.

Note: This results in on-disk additions to the SQLite database. If you do not wish to make add fields to your SQLite database, you will have to collect() the data into a data frame first.

con <- format_dates(con)
chickadee_db <- tbl(con, "naturecounts")

The warning reflects dates that were not valid. In this case, they were missing survey_month and survey_day.

filter(chickadee_df, is.na(date)) %>%
  select(survey_year, survey_month, survey_day, date)

## # A tibble: 203 x 4
##    survey_year survey_month survey_day date      
##          <int>        <int>      <int> <date>    
##  1        1987           NA         NA NA        
##  2        1988           NA         NA NA        
##  3        1991           NA         NA NA        
##  4        1991           NA         NA NA        
##  5        1991           NA         NA NA        
##  6        1987           NA         NA NA        
##  7        1990           NA         NA NA        
##  8        1990           NA         NA NA        
##  9        1991           NA         NA NA        
## 10        1990           NA         NA NA        
## # … with 193 more rows
…
