Zero-filling data • naturecounts
…
count(rc, CommonName)

## # A tibble: 3 x 2
##   CommonName            n
##   <chr>             <int>
## 1 Black Swallowtail    40
## 2 Monarch             215
## 3 Red Admiral          94

How many sampling events?

count(rc, SamplingEventIdentifier)

## # A tibble: 131 x 2
##    SamplingEventIdentifier     n
##    <chr>                   <int>
##  1 <NA>                      176
##  2 RCBIOTABASE-10008-1         1
##  3 RCBIOTABASE-10015-1         1
##  4 RCBIOTABASE-10030-1         1
##  5 RCBIOTABASE-10068-1         1
##  6 RCBIOTABASE-10070-1         1
##  7 RCBIOTABASE-10087-1         1
##  8 RCBIOTABASE-10093-1         2
##  9 RCBIOTABASE-10097-1         1
## 10 RCBIOTABASE-10104-1         1
## # … with 121 more rows
…
