Region Codes • naturecounts
…
bcr - Bird Conservation Regions (e.g., 2 for Western Alaska)

utm_squares - UTM square code (e.g., 10UFE96 for a grid in Alberta)

bbox - Bounding box coordinates (e.g., c(left = -101.097223, bottom = 50.494717, right = -99.511239, top = 51.027557) for a box containing Riding Mountain National Park in Manitoba)

To use the region argument:

nc_count(region = list(statprov = "NB"))

## Without a username, using 'show = "all"'

## Using filters: statprov (NB)

## # A tibble: 23 x 4
##    collection    akn_level access     nrecords
##    <chr>             <int> <chr>         <int>
##  1 ATOWLS                4 by request    13154
##  2 BBS                   5 full          54578
##  3 BBS50-CAN             5 full         188884
##  4 CBC                   2 no access     21559
##  5 EBIRD-CA-AT           4 by request  1333296
##  6 EBIRD-CA-SENS         3 by request       78
##  7 EBUTTERFLY            5 full           2393
##  8 GBBC                  4 by request    13010
##  9 IMQC                  5 full             11
## 10 MBBA1BE_RAW           5 full          73182
## # … with 13 more rows
…
Browse the code list

meta_statprov_codes()

Use the resulting code(s)

nc_count(region = list(statprov = c("DC", "MB")))

## Without a username, using 'show = "all"'

## Using filters: statprov (DC, MB)

## # A tibble: 24 x 4
##    collection    akn_level access     nrecords
##    <chr>             <int> <chr>         <int>
##  1 ABBIRDRECS            5 full            357
##  2 BBS                   5 full          86997
##  3 BBS50-CAN             5 full         453998
##  4 CBC                   2 no access     29107
##  5 CMMN-DET-DMBO         2 no access     88280
##  6 EBIRD-CA-PR           4 by request  2452054
##  7 EBIRD-CA-SENS         3 by request     3961
##  8 EBUTTERFLY            5 full            247
##  9 GBBC                  4 by request    24393
## 10 HawkCount             4 by request     1446
## # … with 14 more rows
…
Browse the code list

meta_subnational2_codes()

Use the resulting code(s)

nc_count(region = list(subnational2 = c("CA-QC-MR", "CA-ON-TO")))

## Without a username, using 'show = "all"'

## Using filters: subnational2 (CA-QC-MR, CA-ON-TO)

## # A tibble: 124 x 4
##    collection     akn_level access     nrecords
##    <chr>              <int> <chr>         <int>
##  1 ABATLAS1               5 full         123364
##  2 ABATLAS2               5 full         201382
##  3 ABBIRDRECS             5 full         357264
##  4 ATOWLS                 4 by request    25250
##  5 BBS                    5 full        5735895
##  6 BBS50-CAN              5 full        4168740
##  7 BBS50-US-EAST          5 full        9940162
##  8 BBS50-US-WEST          5 full       10749161
##  9 BCATLAS1BE_DO          5 full          41412
## 10 BCATLAS1BE_RAW         5 full         344433
## # … with 114 more rows
…
Browse the code list

meta_bcr_codes()

Use the resulting code(s)

nc_count(region = list(bcr = c(5, 2)))

## Without a username, using 'show = "all"'

## Using filters: bcr (BCR.05, BCR.02)

## # A tibble: 25 x 4
##    collection      akn_level access     nrecords
##    <chr>               <int> <chr>         <int>
##  1 BBS50-CAN               5 full         130766
##  2 BBS50-US-WEST           5 full         783880
##  3 BCATLAS1BE_DO           5 full           8171
##  4 BCATLAS1BE_RAW          5 full          84685
##  5 BCATLAS1BE_SUMM         5 full          35528
##  6 BCATLAS1PC              5 full          52256
##  7 BCATLAS1RC              3 by request     6309
##  8 BCBEACH                 4 by request     6576
##  9 BCCWS                   4 by request   353274
## 10 BCOWLS                  4 by request     6557
## # … with 15 more rows
…
Bounding Box

Bounding box reflects latitude and longitude limits.

Use the resulting code(s)

nc_count(region = list(bbox = c(left = -125, bottom = 45, 
                                right = -100, top = 50)))

## Without a username, using 'show = "all"'

## Using filters: bbox_left (-125); bbox_bottom (45); bbox_right (-100); bbox_top (50)

## # A tibble: 43 x 4
##    collection      akn_level access nrecords
##    <chr>               <int> <chr>     <int>
##  1 ABATLAS1                5 full       9827
##  2 ABATLAS2                5 full      25648
##  3 ABBIRDRECS              5 full      39546
##  4 BBS                     5 full     373698
##  5 BBS50-CAN               5 full     382768
##  6 BBS50-US-WEST           5 full    1310345
##  7 BCATLAS1BE_DO           5 full       8786
##  8 BCATLAS1BE_RAW          5 full     106886
##  9 BCATLAS1BE_SUMM         5 full      41747
## 10 BCATLAS1PC              5 full      56786
## # … with 33 more rows
…
