Download information about NatureCounts collections — nc_count • naturecounts
…
    See also

    nc_requests()

    Examples

# Count all publicly available records:
# \donttest{
nc_count()

#> Without a username, using 'show = "all"'
#> # A tibble: 172 x 4
#>    collection akn_level access     nrecords
#>    <chr>          <int> <chr>         <int>
#>  1 ABATLAS1           5 full         123364
#>  2 ABATLAS2           5 full         201382
#>  3 ABBIRDRECS         5 full         357264
#>  4 ABOWLS             4 by request        0
#>  5 ATBBS              4 by request        0
#>  6 ATOWLS             4 by request    25250
#>  7 BBS                5 full        5735895
#>  8 BBS50              5 full              0
#>  9 BBS50-CAN          5 full        4168740
#> 10 BBS50-MEX          2 no access         0
#> # … with 162 more rows
# }

# Count publicly available records for Manitoba, Canada
# \donttest{
nc_count(region = list(statprov = "MB"))

#> Without a username, using 'show = "all"'
#> Using filters: statprov (MB)
#> # A tibble: 23 x 4
#>    collection    akn_level access     nrecords
#>    <chr>             <int> <chr>         <int>
#>  1 ABBIRDRECS            5 full            357
#>  2 BBS                   5 full          86997
#>  3 BBS50-CAN             5 full         453998
#>  4 CBC                   2 no access     20507
#>  5 CMMN-DET-DMBO         2 no access     88280
#>  6 EBIRD-CA-PR           4 by request  2452054
#>  7 EBIRD-CA-SENS         3 by request     3961
#>  8 EBUTTERFLY            5 full            224
#>  9 GBBC                  4 by request    24393
#> 10 HawkCount             4 by request     1446
#> # … with 13 more rows
…
