Chapter 3 - Understanding and Viewing Data • naturecounts
…
## # A tibble: 1 × 5
##   country_code statprov_code subnational2_code subnational2_name      ebird_code
##   <chr>        <chr>         <chr>             <chr>                  <chr>     
## 1 CA           QC            CA.QC.MR          Communauté-Urbaine-de… CA-QC-MR

Great, we now know the codes we need and can view our metadata using
nc_count():

nc_count(region = list(subnational2 = c("CA-QC-MR", "CA-ON-TO")))

## Without a username, using 'show = "all"'

## Using filters: subnational2 (CA-QC-MR, CA-ON-TO)

## # A tibble: 469 × 4
##    collection akn_level access     nrecords
##    <chr>          <int> <chr>         <int>
##  1 ABATLAS1           5 full         123364
##  2 ABATLAS2           5 full         201357
##  3 ABBIRDRECS         5 full         357264
##  4 ABOWLS             4 by request    20956
##  5 ACCWS              3 by request    22889
##  6 ATBANS             3 by request      267
##  7 ATOWLS             4 by request    34149
##  8 AWSGS              3 by request     8931
##  9 BBS                5 full        5735895
## 10 BBS50-CAN          5 full        4543180
## # ℹ 459 more rows

Similarly, this function can be used to view metadata for a bounding
box using latitude and longitude coordinates:

nc_count(region = list(bbox = c(left = -125, bottom = 45, 
                                right = -100, top = 50)))

## Without a username, using 'show = "all"'

## Using filters: bbox_left (-125); bbox_bottom (45); bbox_right (-100); bbox_top (50)

## # A tibble: 169 × 4
##    collection      akn_level access     nrecords
##    <chr>               <int> <chr>         <int>
##  1 ABATLAS1                5 full           9827
##  2 ABATLAS2                5 full          25648
##  3 ABBIRDRECS              5 full          39546
##  4 ABOWLS                  4 by request      306
##  5 BBS                     5 full         373698
##  6 BBS50-CAN               5 full         414770
##  7 BBS50-US-WEST           5 full        1435081
##  8 BCATLAS1BE_DO           5 full           8786
##  9 BCATLAS1BE_RAW          5 full         106886
## 10 BCATLAS1BE_SUMM         5 full          41747
## # ℹ 159 more rows
…
